{
    "title": "Departments",
    "model": "Departments",
    "searchExpression":"indexof(name, '${text}') ge 0 or indexof(facultyName, '${text}') ge 0 or indexof(abbreviation, '${text}') ge 0 or indexof(phone2, '${text}') ge 0 or indexof(phone1, '${text}') ge 0 or indexof(email, '${text}') ge 0 or indexof(contactPerson1, '${text}') ge 0 or indexof(contactPerson2, '${text}') ge 0",
    "columns": [
        {
            "name":"id",
            "hidden" : "true"
        },
        {
            "name": "abbreviation",
            "title": "Abbreviation"
        },
        {
            "name": "name",
            "title": "Name"
        },
        {
            "name":"facultyName",
            "title":"Faculty",
            "formatter": "TemplateFormatter",
            "formatString": "${facultyName != null ? facultyName : '-'}"
        },
        {
            "name":"studyLevel/name",
            "property" : "studyLevel",
            "title":"Study level"
        },
        {
            "name": "totalSemesters",
            "title": "Semesters"
        },
        {
            "name":"contactPerson1",
            "hidden" : "true"
        },
        {
            "name":"contactPerson2",
            "hidden" : "true"
        },
        {
            "name":"phone1",
            "hidden" : "true"
        },
        {
            "name":"email",
            "hidden" : "true"
        }
    ],
    "criteria": [
        {
          "name": "name",
          "filter": "(indexof(name, '${value}') ge 0)",
          "type": "text"
        },
        {
          "name": "facultyName",
          "filter": "(indexof(facultyName, '${value}') ge 0)",
          "type": "text"
        },
        {
          "name": "contact",
          "filter": "(indexof(phone2, '${value}') ge 0 or indexof(phone1, '${value}') ge 0 or indexof(email, '${value}') ge 0 or indexof(contactPerson1, '${value}') ge 0 or indexof(contactPerson2, '${value}') ge 0)",
          "type": "text"
        },
        {
          "name": "studyLevel",
          "filter": "(studyLevel/alternateName eq '${value}')",
          "type": "text"
        },
        {
          "name": "abbreviation",
          "filter": "(indexof(abbreviation, '${value}') ge 0  )",
          "type": "text"
        }
      ],
  "paths" : [
  ]
}
